<?xml version="1.0" encoding="UTF-8"?>
<svg width="117px" height="135px" viewBox="0 0 117 135" version="1.1" xmlns="http://www.w3.org/2000/svg" xmlns:xlink="http://www.w3.org/1999/xlink">
    <!-- Generator: Sketch 52.6 (67491) - http://www.bohemiancoding.com/sketch -->
    <title>Group 4</title>
    <desc>Created with Sketch.</desc>
    <g id="Page-1" stroke="none" stroke-width="1" fill="none" fill-rule="evenodd">
        <g id="Desktop-Copy-4" transform="translate(-255.000000, -957.000000)">
            <g id="Group-4" transform="translate(256.000000, 958.000000)">
                <g id="Group-8-Copy-5" stroke="#171C34">
                    <path d="M94.9975261,116.855491 L17.5702024,116.855491 C12.1820796,116.855491 7.8177002,112.836564 7.8177002,107.880466 L2.42957746,15.3757225 L110.140845,15.3757225 L104.752722,107.880466 C104.752722,112.836564 100.385649,116.855491 94.9975261,116.855491 Z" id="Stroke-1"></path>
                    <polygon id="Stroke-3" points="0 14.6069364 115 14.6069364 115 7.68786127 0 7.68786127"></polygon>
                    <path d="M108.521127,6.91907514 L4.85915493,6.91907514 L4.85915493,3.8245901 C4.85915493,1.7140546 6.74328993,0 9.06324741,0 L104.317034,0 C106.636992,0 108.521127,1.7140546 108.521127,3.8245901 L108.521127,6.91907514 Z" id="Stroke-5"></path>
                    <path d="M98.4276279,133 L95.9359547,133 C94.835226,133 93.943662,132.081646 93.943662,130.951157 L93.943662,119.670435 C93.943662,118.542632 94.835226,117.624277 95.9359547,117.624277 L98.4276279,117.624277 C99.5283566,117.624277 100.422535,118.542632 100.422535,119.670435 L100.422535,130.951157 C100.422535,132.081646 99.5283566,133 98.4276279,133 Z" id="Stroke-6"></path>
                    <path d="M19.0614307,133 L16.5697575,133 C15.4690289,133 14.5774648,132.081646 14.5774648,130.951157 L14.5774648,119.670435 C14.5774648,118.542632 15.4690289,117.624277 16.5697575,117.624277 L19.0614307,117.624277 C20.1621594,117.624277 21.056338,118.542632 21.056338,119.670435 L21.056338,130.951157 C21.056338,132.081646 20.1621594,133 19.0614307,133 Z" id="Stroke-7"></path>
                </g>
                <ellipse id="Oval-Copy-3" fill="#45C85B" opacity="0.513718378" cx="56.5" cy="41" rx="14.5" ry="14"></ellipse>
            </g>
        </g>
    </g>
</svg>