<svg width="178" height="142" viewBox="0 0 178 142" fill="none" xmlns="http://www.w3.org/2000/svg">
<rect x="68" y="2" width="43" height="115" rx="11" stroke="#6EBDFE" stroke-width="4"/>
<rect x="2" y="25" width="174" height="115" rx="12" fill="white" stroke="#6EBDFE" stroke-width="4"/>
<path d="M2 49V59C2 72.2548 12.7452 83 26 83H152C165.255 83 176 72.2548 176 59V55" stroke="#6EBDFE" stroke-width="4"/>
<rect x="75" y="69" width="29" height="25" rx="5" fill="white" stroke="#6EBDFE" stroke-width="4" stroke-linecap="round" stroke-linejoin="round"/>
</svg>
